<?xml version="1.0" standalone="no"?>
<!DOCTYPE svg PUBLIC "-//W3C//DTD SVG 1.1//EN" "http://www.w3.org/Graphics/SVG/1.1/DTD/svg11.dtd" >
<svg xmlns="http://www.w3.org/2000/svg">
  <metadata>Generated by IcoMoon</metadata>
  <defs>
    <font horiz-adv-x="1024" id="icomoon">
      <font-face ascent="960" descent="-64" units-per-em="1024"/>
      <missing-glyph horiz-adv-x="1024"/>
      <glyph d="" horiz-adv-x="512" unicode="&#x20;"/>
      <glyph d="M962.878 685.346c-12.701 12.701-33.34 12.701-46.040 0l-404.837-405.631-405.631 405.631c-12.701 12.701-33.34 12.701-46.040 0s-12.701-33.34 0-46.040l427.857-427.857c6.35-6.35 14.288-9.526 23.020-9.526 7.938 0 16.67 3.175 23.020 9.526l427.857 427.857c13.495 12.701 13.495 33.34 0.794 46.040z" glyph-name="down-arrow"
             unicode="&#xe900;"/>
    </font></defs>
</svg>
